^C:\USERS\FAVIAN\SOURCE\REPOS\FINALPROJECT\FINALPROJECT\DEBUG\GAME.OBJ|C:\USERS\FAVIAN\SOURCE\REPOS\FINALPROJECT\FINALPROJECT\DEBUG\MAIN.OBJ
C:\USERS\FAVIAN\SOURCE\REPOS\FINALPROJECT\DEBUG\FINALPROJECT.EXE
C:\USERS\FAVIAN\SOURCE\REPOS\FINALPROJECT\DEBUG\FINALPROJECT.ILK
C:\USERS\FAVIAN\SOURCE\REPOS\FINALPROJECT\DEBUG\FINALPROJECT.PDB
