# Blender v2.80 (sub 75) OBJ File: 'danbo.blend'
# www.blender.org
mtllib danbo.mtl
o Cube
v 0.828794 4.898339 -0.787816
v 0.828794 4.934032 -0.784301
v 0.828794 4.968355 -0.773889
v 0.828794 4.999986 -0.756982
v 0.828794 5.027711 -0.734228
v 0.828794 5.050465 -0.706503
v 0.828794 5.067372 -0.674872
v 0.828794 5.077784 -0.640550
v 0.828794 5.081299 -0.604856
v 0.828794 5.077784 -0.569162
v 0.828794 5.067372 -0.534840
v 0.828794 5.050465 -0.503209
v 0.828794 5.027711 -0.475483
v 0.828794 4.999986 -0.452730
v 0.828794 4.968355 -0.435822
v 0.828794 4.934032 -0.425411
v 0.828794 4.898339 -0.421895
v 0.828794 4.862645 -0.425411
v 0.828794 4.828323 -0.435823
v 0.828794 4.796691 -0.452730
v 0.828794 4.768966 -0.475483
v 0.828794 4.746212 -0.503209
v 0.828794 4.729305 -0.534840
v 0.828794 4.718894 -0.569162
v 0.828794 4.715378 -0.604856
v 0.828794 4.718894 -0.640550
v 0.828794 4.729305 -0.674872
v 0.828794 4.746213 -0.706503
v 0.828794 4.768966 -0.734229
v 0.828794 4.796691 -0.756982
v 0.828794 4.828323 -0.773889
v 0.828794 4.862645 -0.784301
v 0.828794 4.898339 0.491054
v 0.828794 4.934032 0.494569
v 0.828794 4.968355 0.504981
v 0.828794 4.999986 0.521888
v 0.828794 5.027711 0.544641
v 0.828794 5.050465 0.572367
v 0.828794 5.067372 0.603998
v 0.828794 5.077784 0.638320
v 0.828794 5.081299 0.674014
v 0.828794 5.077784 0.709708
v 0.828794 5.067372 0.744030
v 0.828794 5.050465 0.775661
v 0.828794 5.027711 0.803387
v 0.828794 4.999986 0.826140
v 0.828794 4.968355 0.843047
v 0.828794 4.934032 0.853459
v 0.828794 4.898339 0.856974
v 0.828794 4.862645 0.853459
v 0.828794 4.828323 0.843047
v 0.828794 4.796691 0.826140
v 0.828794 4.768966 0.803387
v 0.828794 4.746212 0.775661
v 0.828794 4.729305 0.744030
v 0.828794 4.718894 0.709708
v 0.828794 4.715378 0.674014
v 0.828794 4.718894 0.638320
v 0.828794 4.729305 0.603998
v 0.828794 4.746213 0.572366
v 0.828794 4.768966 0.544641
v 0.828794 4.796691 0.521888
v 0.828794 4.828323 0.504981
v 0.828794 4.862645 0.494569
v 0.837955 4.584674 0.021857
v 0.837955 4.186244 -0.208176
v 0.837955 4.186244 0.251891
v 0.959277 5.709728 -1.701250
v 0.959277 3.791174 -1.701250
v 0.959277 5.709728 1.701250
v 0.959277 3.791174 1.701250
v -0.959277 5.709728 -1.701250
v -0.959277 3.791174 -1.701250
v -0.959277 5.709728 1.701250
v -0.959277 3.791174 1.701250
v 0.959277 5.081299 0.674014
v 0.959277 5.077784 0.709708
v 0.959277 5.077784 0.638320
v 0.959277 5.067372 0.744030
v 0.959277 5.050465 0.775661
v 0.959277 5.027711 0.803387
v 0.959277 4.999986 0.826140
v 0.959277 4.968355 0.843047
v 0.959277 4.934032 0.853459
v 0.959277 4.898339 0.856974
v 0.959277 4.862645 0.853459
v 0.959277 4.828323 0.843047
v 0.959277 4.796691 0.826140
v 0.959277 4.768966 0.803387
v 0.959277 4.746212 0.775661
v 0.959277 4.715378 0.674014
v 0.959277 4.718894 0.638320
v 0.959277 4.718894 0.709708
v 0.959277 4.729305 0.744030
v 0.959277 5.050465 0.572367
v 0.959277 5.067372 0.603998
v 0.959277 5.027711 0.544641
v 0.959277 4.968355 0.504981
v 0.959277 4.999986 0.521888
v 0.959277 4.934032 0.494569
v 0.959277 4.898339 0.491054
v 0.959277 4.862645 0.494569
v 0.959277 4.796691 0.521888
v 0.959277 4.768966 0.544641
v 0.959277 4.828323 0.504981
v 0.959277 4.746213 0.572366
v 0.959277 4.729305 0.603998
v 0.959277 4.584674 0.021857
v 0.959277 4.186244 0.251891
v 0.959277 4.186244 -0.208176
v 0.959277 5.081299 -0.604856
v 0.959277 5.077784 -0.569162
v 0.959277 5.077784 -0.640550
v 0.959277 5.050465 -0.503209
v 0.959277 5.067372 -0.534840
v 0.959277 5.027711 -0.475483
v 0.959277 4.999986 -0.452730
v 0.959277 4.968355 -0.435822
v 0.959277 4.934032 -0.425411
v 0.959277 4.898339 -0.421895
v 0.959277 4.862645 -0.425411
v 0.959277 4.828323 -0.435823
v 0.959277 4.796691 -0.452730
v 0.959277 4.746212 -0.503209
v 0.959277 4.768966 -0.475483
v 0.959277 4.729305 -0.534840
v 0.959277 4.718894 -0.569162
v 0.959277 4.715378 -0.604856
v 0.959277 5.067372 -0.674872
v 0.959277 5.050465 -0.706503
v 0.959277 5.027711 -0.734228
v 0.959277 4.999986 -0.756982
v 0.959277 4.796691 -0.756982
v 0.959277 4.768966 -0.734229
v 0.959277 4.746213 -0.706503
v 0.959277 4.729305 -0.674872
v 0.959277 4.718894 -0.640550
v 0.959277 4.968355 -0.773889
v 0.959277 4.934032 -0.784301
v 0.959277 4.828323 -0.773889
v 0.959277 4.862645 -0.784301
v 0.959277 4.898339 -0.787816
vt 0.500000 1.000000
vt 0.402455 0.990393
vt 0.308658 0.961940
vt 0.222215 0.915735
vt 0.146447 0.853553
vt 0.084265 0.777785
vt 0.038060 0.691342
vt 0.009607 0.597545
vt 0.000000 0.500000
vt 0.009607 0.402455
vt 0.038060 0.308658
vt 0.084265 0.222215
vt 0.146447 0.146447
vt 0.222215 0.084265
vt 0.308658 0.038060
vt 0.402455 0.009607
vt 0.500000 0.000000
vt 0.597545 0.009607
vt 0.691342 0.038060
vt 0.777785 0.084265
vt 0.853554 0.146447
vt 0.915735 0.222215
vt 0.961940 0.308659
vt 0.990393 0.402455
vt 1.000000 0.500000
vt 0.990393 0.597546
vt 0.961940 0.691342
vt 0.915734 0.777786
vt 0.853553 0.853554
vt 0.777785 0.915735
vt 0.691341 0.961940
vt 0.597544 0.990393
vt 0.915735 0.222215
vt 0.961940 0.308659
vt 0.000000 0.500000
vt 0.009607 0.402455
vt 0.990393 0.402455
vt 0.038060 0.308658
vt 1.000000 0.500000
vt 0.084265 0.222215
vt 0.990393 0.597546
vt 0.146447 0.146447
vt 0.961940 0.691342
vt 0.222215 0.084265
vt 0.915734 0.777786
vt 0.308658 0.038060
vt 0.500000 1.000000
vt 0.402455 0.990393
vt 0.853553 0.853554
vt 0.402455 0.009607
vt 0.308658 0.961940
vt 0.777785 0.915735
vt 0.500000 0.000000
vt 0.222215 0.915735
vt 0.691341 0.961940
vt 0.597545 0.009607
vt 0.146447 0.853553
vt 0.597544 0.990393
vt 0.691342 0.038060
vt 0.084265 0.777785
vt 0.777785 0.084265
vt 0.038060 0.691342
vt 0.853554 0.146447
vt 0.009607 0.597545
vt 0.500000 1.000000
vt 0.402455 0.990393
vt 0.308658 0.961940
vt 0.222215 0.915735
vt 0.146447 0.853553
vt 0.084265 0.777785
vt 0.038060 0.691342
vt 0.009607 0.597545
vt 0.000000 0.500000
vt 0.009607 0.402455
vt 0.038060 0.308658
vt 0.084265 0.222215
vt 0.146447 0.146447
vt 0.222215 0.084265
vt 0.308658 0.038060
vt 0.402455 0.009607
vt 0.500000 0.000000
vt 0.597545 0.009607
vt 0.691342 0.038060
vt 0.777785 0.084265
vt 0.853554 0.146447
vt 0.915735 0.222215
vt 0.961940 0.308659
vt 0.990393 0.402455
vt 1.000000 0.500000
vt 0.990393 0.597546
vt 0.961940 0.691342
vt 0.915734 0.777786
vt 0.853553 0.853554
vt 0.777785 0.915735
vt 0.691341 0.961940
vt 0.597544 0.990393
vt 0.915735 0.222215
vt 0.961940 0.308659
vt 0.000000 0.500000
vt 0.009607 0.402455
vt 0.990393 0.402455
vt 0.038060 0.308658
vt 1.000000 0.500000
vt 0.084265 0.222215
vt 0.990393 0.597546
vt 0.146447 0.146447
vt 0.961940 0.691342
vt 0.222215 0.084265
vt 0.915734 0.777786
vt 0.308658 0.038060
vt 0.500000 1.000000
vt 0.402455 0.990393
vt 0.853553 0.853554
vt 0.402455 0.009607
vt 0.308658 0.961940
vt 0.777785 0.915735
vt 0.500000 0.000000
vt 0.222215 0.915735
vt 0.691341 0.961940
vt 0.597545 0.009607
vt 0.146447 0.853553
vt 0.597544 0.990393
vt 0.691342 0.038060
vt 0.084265 0.777785
vt 0.777785 0.084265
vt 0.038060 0.691342
vt 0.853554 0.146447
vt 0.009607 0.597545
vt 1.000000 0.500000
vt 0.666667 0.500000
vt 0.666667 0.821597
vt 1.000000 0.821596
vt 0.333333 0.500000
vt 0.333333 0.821597
vt -0.000000 0.500000
vt -0.000000 0.821596
vt 0.750000 0.490000
vt 0.542154 0.130000
vt 0.957846 0.130000
vt 0.375000 0.000000
vt 0.625000 0.000000
vt 0.625000 0.250000
vt 0.375000 0.250000
vt 0.375000 0.250000
vt 0.625000 0.250000
vt 0.625000 0.500000
vt 0.375000 0.500000
vt 0.625000 0.750000
vt 0.375000 0.750000
vt 0.625000 0.750000
vt 0.625000 1.000000
vt 0.375000 1.000000
vt 0.125000 0.500000
vt 0.176480 0.609704
vt 0.176480 0.643508
vt 0.125000 0.750000
vt 0.625000 0.500000
vt 0.875000 0.500000
vt 0.875000 0.750000
vt 0.228398 0.626606
vt 0.375000 0.500000
vt 0.269271 0.567115
vt 0.264620 0.567373
vt 0.260147 0.568138
vt 0.256025 0.569380
vt 0.252413 0.571052
vt 0.249448 0.573089
vt 0.247245 0.575414
vt 0.245888 0.577935
vt 0.245430 0.580558
vt 0.245888 0.583181
vt 0.247245 0.585702
vt 0.249448 0.588027
vt 0.252413 0.590064
vt 0.256025 0.591736
vt 0.260147 0.592978
vt 0.264620 0.593743
vt 0.269271 0.594001
vt 0.269271 0.661080
vt 0.264620 0.661339
vt 0.260147 0.662104
vt 0.256025 0.663346
vt 0.252413 0.665018
vt 0.249448 0.667055
vt 0.247245 0.669379
vt 0.245888 0.671901
vt 0.245430 0.674523
vt 0.245888 0.677146
vt 0.247245 0.679668
vt 0.249448 0.681992
vt 0.252413 0.684029
vt 0.256025 0.685701
vt 0.260147 0.686943
vt 0.264620 0.687708
vt 0.269271 0.687966
vt 0.375000 0.750000
vt 0.273922 0.687708
vt 0.278394 0.686943
vt 0.282516 0.685701
vt 0.286129 0.684029
vt 0.289094 0.681992
vt 0.291297 0.679668
vt 0.292654 0.677146
vt 0.293112 0.674523
vt 0.292654 0.671901
vt 0.291297 0.669379
vt 0.289094 0.667055
vt 0.286129 0.665018
vt 0.282516 0.663346
vt 0.278394 0.662104
vt 0.273922 0.661339
vt 0.273922 0.593743
vt 0.278394 0.592978
vt 0.282516 0.591736
vt 0.286129 0.590064
vt 0.289094 0.588027
vt 0.291297 0.585702
vt 0.292654 0.583181
vt 0.293112 0.580558
vt 0.292654 0.577935
vt 0.291297 0.575414
vt 0.289094 0.573089
vt 0.286129 0.571052
vt 0.282516 0.569380
vt 0.278394 0.568138
vt 0.273922 0.567373
vn 1.0000 -0.0000 0.0000
vn 0.0000 0.8819 -0.4714
vn 0.0000 -0.9952 -0.0980
vn 0.0000 0.9569 -0.2903
vn 0.0000 -0.9569 -0.2903
vn 0.0000 0.9952 -0.0980
vn 0.0000 -0.8819 -0.4714
vn 0.0000 0.9952 0.0980
vn 0.0000 -0.7730 -0.6344
vn 0.0000 0.9569 0.2903
vn 0.0000 -0.6344 -0.7730
vn 0.0000 0.8819 0.4714
vn 0.0000 -0.4714 -0.8819
vn 0.0000 -0.0980 0.9952
vn 0.0000 0.7730 0.6344
vn 0.0000 -0.2903 -0.9569
vn 0.0000 -0.2903 0.9569
vn 0.0000 0.6344 0.7730
vn 0.0000 -0.0980 -0.9952
vn 0.0000 -0.4714 0.8819
vn -0.0000 0.4714 0.8819
vn 0.0000 0.0980 -0.9952
vn 0.0000 -0.6344 0.7730
vn -0.0000 0.2903 0.9569
vn 0.0000 0.2903 -0.9569
vn 0.0000 -0.7730 0.6344
vn 0.0000 0.0980 0.9952
vn 0.0000 0.4714 -0.8819
vn 0.0000 -0.8819 0.4714
vn 0.0000 0.6344 -0.7730
vn 0.0000 -0.9569 0.2903
vn 0.0000 0.7730 -0.6344
vn 0.0000 -0.9952 0.0980
vn 0.0000 -0.5000 0.8660
vn 0.0000 1.0000 -0.0000
vn 0.0000 -0.5000 -0.8660
vn 0.0000 0.0000 1.0000
vn -1.0000 0.0000 0.0000
vn 0.0000 -1.0000 0.0000
vn 0.0000 0.0000 -1.0000
usemtl Material
s off
f 1/1/1 2/2/1 3/3/1 4/4/1 5/5/1 6/6/1 7/7/1 8/8/1 9/9/1 10/10/1 11/11/1 12/12/1 13/13/1 14/14/1 15/15/1 16/16/1 17/17/1 18/18/1 19/19/1 20/20/1 21/21/1 22/22/1 23/23/1 24/24/1 25/25/1 26/26/1 27/27/1 28/28/1 29/29/1 30/30/1 31/31/1 32/32/1
f 22/22/2 124/33/2 126/34/2 23/23/2
f 9/9/3 111/35/3 112/36/3 10/10/3
f 23/23/4 126/34/4 127/37/4 24/24/4
f 10/10/5 112/36/5 115/38/5 11/11/5
f 24/24/6 127/37/6 128/39/6 25/25/6
f 11/11/7 115/38/7 114/40/7 12/12/7
f 25/25/8 128/39/8 137/41/8 26/26/8
f 12/12/9 114/40/9 116/42/9 13/13/9
f 26/26/10 137/41/10 136/43/10 27/27/10
f 13/13/11 116/42/11 117/44/11 14/14/11
f 27/27/12 136/43/12 135/45/12 28/28/12
f 14/14/13 117/44/13 118/46/13 15/15/13
f 1/1/14 142/47/14 139/48/14 2/2/14
f 28/28/15 135/45/15 134/49/15 29/29/15
f 15/15/16 118/46/16 119/50/16 16/16/16
f 2/2/17 139/48/17 138/51/17 3/3/17
f 29/29/18 134/49/18 133/52/18 30/30/18
f 16/16/19 119/50/19 120/53/19 17/17/19
f 3/3/20 138/51/20 132/54/20 4/4/20
f 30/30/21 133/52/21 140/55/21 31/31/21
f 17/17/22 120/53/22 121/56/22 18/18/22
f 4/4/23 132/54/23 131/57/23 5/5/23
f 31/31/24 140/55/24 141/58/24 32/32/24
f 18/18/25 121/56/25 122/59/25 19/19/25
f 5/5/26 131/57/26 130/60/26 6/6/26
f 32/32/27 141/58/27 142/47/27 1/1/27
f 19/19/28 122/59/28 123/61/28 20/20/28
f 6/6/29 130/60/29 129/62/29 7/7/29
f 20/20/30 123/61/30 125/63/30 21/21/30
f 7/7/31 129/62/31 113/64/31 8/8/31
f 21/21/32 125/63/32 124/33/32 22/22/32
f 8/8/33 113/64/33 111/35/33 9/9/33
f 33/65/1 34/66/1 35/67/1 36/68/1 37/69/1 38/70/1 39/71/1 40/72/1 41/73/1 42/74/1 43/75/1 44/76/1 45/77/1 46/78/1 47/79/1 48/80/1 49/81/1 50/82/1 51/83/1 52/84/1 53/85/1 54/86/1 55/87/1 56/88/1 57/89/1 58/90/1 59/91/1 60/92/1 61/93/1 62/94/1 63/95/1 64/96/1
f 54/86/2 90/97/2 94/98/2 55/87/2
f 41/73/3 76/99/3 77/100/3 42/74/3
f 55/87/4 94/98/4 93/101/4 56/88/4
f 42/74/5 77/100/5 79/102/5 43/75/5
f 56/88/6 93/101/6 91/103/6 57/89/6
f 43/75/7 79/102/7 80/104/7 44/76/7
f 57/89/8 91/103/8 92/105/8 58/90/8
f 44/76/9 80/104/9 81/106/9 45/77/9
f 58/90/10 92/105/10 107/107/10 59/91/10
f 45/77/11 81/106/11 82/108/11 46/78/11
f 59/91/12 107/107/12 106/109/12 60/92/12
f 46/78/13 82/108/13 83/110/13 47/79/13
f 33/65/14 101/111/14 100/112/14 34/66/14
f 60/92/15 106/109/15 104/113/15 61/93/15
f 47/79/16 83/110/16 84/114/16 48/80/16
f 34/66/17 100/112/17 98/115/17 35/67/17
f 61/93/18 104/113/18 103/116/18 62/94/18
f 48/80/19 84/114/19 85/117/19 49/81/19
f 35/67/20 98/115/20 99/118/20 36/68/20
f 62/94/21 103/116/21 105/119/21 63/95/21
f 49/81/22 85/117/22 86/120/22 50/82/22
f 36/68/23 99/118/23 97/121/23 37/69/23
f 63/95/24 105/119/24 102/122/24 64/96/24
f 50/82/25 86/120/25 87/123/25 51/83/25
f 37/69/26 97/121/26 95/124/26 38/70/26
f 64/96/27 102/122/27 101/111/27 33/65/27
f 51/83/28 87/123/28 88/125/28 52/84/28
f 38/70/29 95/124/29 96/126/29 39/71/29
f 52/84/30 88/125/30 89/127/30 53/85/30
f 39/71/31 96/126/31 78/128/31 40/72/31
f 53/85/32 89/127/32 90/97/32 54/86/32
f 40/72/33 78/128/33 76/99/33 41/73/33
f 65/129/34 66/130/34 110/131/34 108/132/34
f 66/130/35 67/133/35 109/134/35 110/131/35
f 67/133/36 65/135/36 108/136/36 109/134/36
f 65/137/1 67/138/1 66/139/1
f 68/140/35 72/141/35 74/142/35 70/143/35
f 71/144/37 70/145/37 74/146/37 75/147/37
f 75/147/38 74/146/38 72/148/38 73/149/38
f 73/149/39 69/150/39 71/151/39 75/152/39
f 69/153/1 110/154/1 109/155/1 71/156/1
f 73/157/40 72/158/40 68/159/40 69/150/40
f 71/156/1 109/155/1 108/160/1 110/154/1 69/153/1 68/161/1 142/162/1 141/163/1 140/164/1 133/165/1 134/166/1 135/167/1 136/168/1 137/169/1 128/170/1 127/171/1 126/172/1 124/173/1 125/174/1 123/175/1 122/176/1 121/177/1 120/178/1 101/179/1 102/180/1 105/181/1 103/182/1 104/183/1 106/184/1 107/185/1 92/186/1 91/187/1 93/188/1 94/189/1 90/190/1 89/191/1 88/192/1 87/193/1 86/194/1 85/195/1 70/196/1
f 70/196/1 85/195/1 84/197/1 83/198/1 82/199/1 81/200/1 80/201/1 79/202/1 77/203/1 76/204/1 78/205/1 96/206/1 95/207/1 97/208/1 99/209/1 98/210/1 100/211/1 101/179/1 120/178/1 119/212/1 118/213/1 117/214/1 116/215/1 114/216/1 115/217/1 112/218/1 111/219/1 113/220/1 129/221/1 130/222/1 131/223/1 132/224/1 138/225/1 139/226/1 142/162/1 68/161/1
o Cube.001
v -0.732375 2.072904 0.823640
v -0.732375 3.805781 0.823640
v -0.732375 2.072904 -0.823640
v -0.732375 3.805781 -0.823640
v 0.732375 2.072904 0.823640
v 0.732375 3.805781 0.823640
v 0.732375 2.072904 -0.823640
v 0.732375 3.805781 -0.823640
v -0.732375 2.072904 -0.704396
v -0.732375 2.072904 0.704396
v -0.732375 3.805781 0.704396
v -0.732375 3.805781 -0.704396
v 0.732375 2.072904 0.704396
v 0.732375 2.072904 -0.704396
v 0.732375 3.805781 -0.704396
v 0.732375 3.805781 0.704396
v 0.626575 2.072904 -0.823639
v -0.627035 2.072904 -0.823639
v -0.627035 3.805781 -0.823639
v 0.626575 3.805781 -0.823639
v -0.627035 2.072904 0.823639
v 0.626575 2.072904 0.823639
v 0.626575 3.805781 0.823639
v -0.627035 3.805781 0.823639
v -0.627035 3.805781 -0.704396
v 0.626575 3.805781 -0.704396
v -0.627035 3.805781 0.704396
v 0.626575 3.805781 0.704396
v 0.626575 2.072904 -0.704396
v -0.627035 2.072904 -0.704396
v 0.626575 2.072904 0.704396
v -0.627035 2.072904 0.704396
v -1.051153 1.456780 0.704396
v -1.051153 1.456780 0.823639
v -0.926700 1.411285 -0.823639
v -1.051153 1.456780 -0.823639
v 0.958968 1.454722 -0.704396
v 0.958968 1.454722 -0.823639
v 0.832478 1.413343 0.823639
v 0.958968 1.454722 0.823639
v -1.051153 1.456780 -0.704396
v 0.958968 1.454722 0.704396
v -0.926700 1.411285 -0.704396
v -0.926700 1.411285 0.704396
v 0.832478 1.413343 -0.823639
v -0.926700 1.411285 0.823639
v 0.832478 1.413343 -0.704396
v 0.832478 1.413343 0.704396
v 0.626575 1.465909 -1.008867
v -0.627035 1.465909 -1.008867
v -0.627035 1.444842 1.047930
v 0.626575 1.444842 1.047930
v 0.626575 1.417835 -0.900204
v -0.627035 1.417835 -0.900204
v 0.626575 1.424958 0.930429
v -0.627035 1.424958 0.930429
vt 0.375000 0.166667
vt 0.625000 0.166667
vt 0.625000 0.250000
vt 0.375000 0.250000
vt 0.375000 0.416627
vt 0.625000 0.416627
vt 0.625000 0.500000
vt 0.375000 0.500000
vt 0.375000 0.666667
vt 0.625000 0.666667
vt 0.625000 0.750000
vt 0.375000 0.750000
vt 0.375000 0.916706
vt 0.625000 0.916706
vt 0.625000 1.000000
vt 0.375000 1.000000
vt 0.208294 0.583333
vt 0.208294 0.666667
vt 0.208294 0.666667
vt 0.208294 0.583333
vt 0.791706 0.666667
vt 0.875000 0.666667
vt 0.875000 0.750000
vt 0.791706 0.750000
vt 0.791706 0.500000
vt 0.875000 0.500000
vt 0.875000 0.583333
vt 0.791706 0.583333
vt 0.375000 0.583333
vt 0.375000 0.583333
vt 0.375000 0.500000
vt 0.375000 0.416627
vt 0.625000 0.583333
vt 0.375000 0.000000
vt 0.625000 0.000000
vt 0.625000 0.083333
vt 0.375000 0.083333
vt 0.375000 0.166667
vt 0.375000 0.083333
vt 0.291627 0.583333
vt 0.291627 0.666667
vt 0.375000 0.250000
vt 0.208294 0.750000
vt 0.208294 0.666667
vt 0.208294 0.750000
vt 0.708373 0.583333
vt 0.708373 0.666667
vt 0.708373 0.500000
vt 0.708373 0.750000
vt 0.375000 0.333294
vt 0.375000 0.333294
vt 0.291627 0.500000
vt 0.291627 0.583333
vt 0.291627 0.500000
vt 0.625000 0.833373
vt 0.375000 0.833373
vt 0.625000 0.333294
vt 0.291627 0.666667
vt 0.375000 0.666667
vt 0.375000 0.750000
vt 0.291627 0.750000
vt 0.291627 0.500000
vt 0.291627 0.583333
vt 0.125000 0.583333
vt 0.125000 0.666667
vt 0.125000 0.500000
vt 0.208294 0.500000
vt 0.208294 0.750000
vt 0.125000 0.750000
vt 0.375000 0.000000
vt 0.208294 0.500000
vt 0.375000 1.000000
vt 0.375000 0.916706
vt 0.375000 0.833373
vt 0.291627 0.750000
vt 0.208294 0.500000
vt 0.208294 0.583333
vt 0.291627 0.666667
vt 0.291627 0.750000
vt 0.375000 0.916706
vt 0.375000 0.833373
vt 0.375000 0.416627
vt 0.375000 0.333294
vn -1.0000 0.0000 0.0000
vn 0.0000 0.0000 -1.0000
vn 1.0000 0.0000 0.0000
vn 0.0000 0.0000 1.0000
vn 0.9109 -0.4126 0.0000
vn 0.0000 1.0000 0.0000
vn 0.9389 0.3442 0.0000
vn -0.8882 0.4595 0.0000
vn 0.0000 -1.0000 0.0000
vn 0.3109 -0.9504 0.0000
vn -0.3433 -0.9392 0.0000
vn -0.9546 -0.2980 0.0000
vn 0.0000 -0.9145 -0.4046
vn 0.0000 -0.9860 0.1668
vn 0.0000 -0.3294 -0.9442
vn 0.0000 -0.2864 0.9581
vn 0.0000 0.3363 0.9418
vn 0.0000 0.2919 -0.9565
usemtl Material
s off
f 151/227/41 154/228/41 146/229/41 145/230/41
f 159/231/42 162/232/42 150/233/42 149/234/42
f 155/235/43 158/236/43 148/237/43 147/238/43
f 163/239/44 166/240/44 144/241/44 143/242/44
f 172/243/45 174/244/45 186/245/45 185/246/45
f 169/247/46 153/248/46 144/249/46 166/250/46
f 161/251/46 146/252/46 154/253/46 167/254/46
f 167/254/46 154/253/46 153/248/46 169/247/46
f 149/234/47 156/255/47 179/256/47 180/257/47
f 159/231/42 149/234/42 180/257/42 187/258/42
f 149/234/43 150/233/43 157/259/43 156/255/43
f 156/255/43 157/259/43 158/236/43 155/235/43
f 143/260/41 144/261/41 153/262/41 152/263/41
f 152/263/41 153/262/41 154/228/41 151/227/41
f 152/263/48 151/227/48 183/264/48 175/265/48
f 172/243/49 171/266/49 173/267/49 174/244/49
f 151/227/48 145/230/48 178/268/48 183/264/48
f 163/269/41 174/244/41 198/270/41 193/271/41
f 157/259/46 168/272/46 170/273/46 158/236/46
f 168/272/46 167/254/46 169/247/46 170/273/46
f 150/233/46 162/274/46 168/272/46 157/259/46
f 162/274/46 161/251/46 167/254/46 168/272/46
f 158/236/46 170/273/46 165/275/46 148/237/46
f 170/273/46 169/247/46 166/250/46 165/275/46
f 145/230/42 160/276/42 177/277/42 178/268/42
f 159/278/43 171/266/43 195/279/43 191/280/43
f 147/238/44 148/237/44 165/281/44 164/282/44
f 164/282/44 165/281/44 166/240/44 163/239/44
f 145/230/42 146/229/42 161/283/42 160/276/42
f 160/276/42 161/283/42 162/232/42 159/231/42
f 190/284/50 184/285/50 182/286/50 181/287/50
f 187/288/50 180/257/50 179/256/50 189/289/50
f 189/289/50 179/256/50 184/285/50 190/284/50
f 183/290/51 185/246/51 186/245/51 175/291/51
f 178/292/51 177/293/51 185/246/51 183/290/51
f 175/291/51 186/245/51 188/294/51 176/295/51
f 143/260/48 152/263/48 175/265/48 176/296/48
f 173/267/52 171/266/52 189/289/52 190/284/52
f 155/235/47 147/238/47 182/286/47 184/285/47
f 160/297/45 172/243/45 185/246/45 177/293/45
f 174/244/45 163/269/45 188/294/45 186/245/45
f 156/255/47 155/235/47 184/285/47 179/256/47
f 163/239/44 143/242/44 176/298/44 188/299/44
f 171/266/52 159/278/52 187/288/52 189/289/52
f 147/238/44 164/282/44 181/300/44 182/286/44
f 164/301/52 173/267/52 190/284/52 181/287/52
f 192/302/53 191/280/53 195/279/53 196/303/53
f 198/270/54 197/304/54 194/305/54 193/271/54
f 174/244/55 173/267/55 197/304/55 198/270/55
f 171/266/56 172/243/56 196/303/56 195/279/56
f 172/243/41 160/297/41 192/302/41 196/303/41
f 173/267/43 164/301/43 194/305/43 197/304/43
f 164/282/57 163/239/57 193/306/57 194/307/57
f 160/276/58 159/231/58 191/308/58 192/309/58
o Cube.002
v -0.358949 0.063115 0.785980
v -0.358949 2.086985 0.785980
v -0.358949 0.063115 0.068082
v -0.358949 2.086985 0.068082
v 0.358949 0.063115 0.785980
v 0.358949 2.086985 0.785980
v 0.358949 0.063115 0.068082
v 0.358949 2.086985 0.068082
vt 0.375000 0.000000
vt 0.625000 0.000000
vt 0.625000 0.250000
vt 0.375000 0.250000
vt 0.625000 0.500000
vt 0.375000 0.500000
vt 0.625000 0.750000
vt 0.375000 0.750000
vt 0.625000 1.000000
vt 0.375000 1.000000
vt 0.125000 0.500000
vt 0.125000 0.750000
vt 0.875000 0.500000
vt 0.875000 0.750000
vn -1.0000 0.0000 0.0000
vn 0.0000 0.0000 -1.0000
vn 1.0000 0.0000 0.0000
vn 0.0000 0.0000 1.0000
vn 0.0000 -1.0000 0.0000
vn 0.0000 1.0000 0.0000
usemtl Material.001
s off
f 199/310/59 200/311/59 202/312/59 201/313/59
f 201/313/60 202/312/60 206/314/60 205/315/60
f 205/315/61 206/314/61 204/316/61 203/317/61
f 203/317/62 204/316/62 200/318/62 199/319/62
f 201/320/63 205/315/63 203/317/63 199/321/63
f 206/314/64 202/322/64 200/323/64 204/316/64
o Cube.003
v -0.358949 0.063115 -0.081427
v -0.358949 2.086985 -0.081427
v -0.358949 0.063115 -0.799325
v -0.358949 2.086985 -0.799325
v 0.358949 0.063115 -0.081427
v 0.358949 2.086985 -0.081427
v 0.358949 0.063115 -0.799325
v 0.358949 2.086985 -0.799325
vt 0.375000 0.000000
vt 0.625000 0.000000
vt 0.625000 0.250000
vt 0.375000 0.250000
vt 0.625000 0.500000
vt 0.375000 0.500000
vt 0.625000 0.750000
vt 0.375000 0.750000
vt 0.625000 1.000000
vt 0.375000 1.000000
vt 0.125000 0.500000
vt 0.125000 0.750000
vt 0.875000 0.500000
vt 0.875000 0.750000
vn -1.0000 0.0000 0.0000
vn 0.0000 0.0000 -1.0000
vn 1.0000 0.0000 0.0000
vn 0.0000 0.0000 1.0000
vn 0.0000 -1.0000 0.0000
vn 0.0000 1.0000 0.0000
usemtl Material.001
s off
f 207/324/65 208/325/65 210/326/65 209/327/65
f 209/327/66 210/326/66 214/328/66 213/329/66
f 213/329/67 214/328/67 212/330/67 211/331/67
f 211/331/68 212/330/68 208/332/68 207/333/68
f 209/334/69 213/329/69 211/331/69 207/335/69
f 214/328/70 210/336/70 208/337/70 212/330/70
o Cube.004
v -0.358949 1.621166 -1.573261
v -0.358949 3.498297 -0.816672
v -0.358949 1.889540 -2.239108
v -0.358949 3.766671 -1.482519
v 0.358949 1.621166 -1.573261
v 0.358949 3.498297 -0.816672
v 0.358949 1.889540 -2.239108
v 0.358949 3.766671 -1.482519
vt 0.375000 0.000000
vt 0.625000 0.000000
vt 0.625000 0.250000
vt 0.375000 0.250000
vt 0.625000 0.500000
vt 0.375000 0.500000
vt 0.625000 0.750000
vt 0.375000 0.750000
vt 0.625000 1.000000
vt 0.375000 1.000000
vt 0.125000 0.500000
vt 0.125000 0.750000
vt 0.875000 0.500000
vt 0.875000 0.750000
vn -1.0000 0.0000 0.0000
vn 0.0000 0.3738 -0.9275
vn 1.0000 0.0000 0.0000
vn 0.0000 -0.3738 0.9275
vn 0.0000 -0.9275 -0.3738
vn 0.0000 0.9275 0.3738
usemtl Material
s off
f 215/338/71 216/339/71 218/340/71 217/341/71
f 217/341/72 218/340/72 222/342/72 221/343/72
f 221/343/73 222/342/73 220/344/73 219/345/73
f 219/345/74 220/344/74 216/346/74 215/347/74
f 217/348/75 221/343/75 219/345/75 215/349/75
f 222/342/76 218/350/76 216/351/76 220/344/76
o Cube.005
v -0.358949 1.875213 2.220678
v -0.358949 3.763290 1.491832
v -0.358949 1.616681 1.550948
v -0.358949 3.504757 0.822102
v 0.358949 1.875213 2.220678
v 0.358949 3.763290 1.491832
v 0.358949 1.616681 1.550948
v 0.358949 3.504757 0.822102
vt 0.375000 0.000000
vt 0.625000 0.000000
vt 0.625000 0.250000
vt 0.375000 0.250000
vt 0.625000 0.500000
vt 0.375000 0.500000
vt 0.625000 0.750000
vt 0.375000 0.750000
vt 0.625000 1.000000
vt 0.375000 1.000000
vt 0.125000 0.500000
vt 0.125000 0.750000
vt 0.875000 0.500000
vt 0.875000 0.750000
vn -1.0000 0.0000 0.0000
vn 0.0000 -0.3601 -0.9329
vn 1.0000 0.0000 0.0000
vn 0.0000 0.3601 0.9329
vn 0.0000 -0.9329 0.3601
vn 0.0000 0.9329 -0.3601
usemtl Material
s off
f 223/352/77 224/353/77 226/354/77 225/355/77
f 225/355/78 226/354/78 230/356/78 229/357/78
f 229/357/79 230/356/79 228/358/79 227/359/79
f 227/359/80 228/358/80 224/360/80 223/361/80
f 225/362/81 229/357/81 227/359/81 223/363/81
f 230/356/82 226/364/82 224/365/82 228/358/82
